Superstore Sales Analysis (EDA)
…
## [1] "Roy Französisch"   "Resi Pölking"      "Peter Bühler"     
## [4] "Barry Französisch" "Anna Häberlin"     "Neil Französisch"

# apply this approach to the whole Customer Name column
Encoding(Orders$`Customer Name`) <- "latin1"

Check Product Name.

# Product Name
invalid_product_name <- Orders %>%
  select(`Product Name`) %>%
  filter(!validUTF8(`Product Name`)) %>%
  distinct(); invalid_product_name

## # A tibble: 59 × 1
##    `Product Name`                                                               
##    <chr>                                                                        
##  1 "Konftel 250 Conference\xa0phone\xa0- Charcoal black"                        
##  2 "Imation\xa08GB Mini TravelDrive USB 2.0\xa0Flash Drive"                     
##  3 "Imation\xa08gb Micro Traveldrive Usb 2.0\xa0Flash Drive"                    
##  4 "Logitech\xa0LS21 Speaker System - PC Multimedia - 2.1-CH - Wired"           
##  5 "Logitech\xa0Gaming G510s - Keyboard"                                        
##  6 "Plantronics Cordless\xa0Phone Headset\xa0with In-line Volume - M214C"       
##  7 "Jabra BIZ 2300 Duo QD Duo Corded\xa0Headset"                                
##  8 "Adams Phone Message Book, Professional, 400 Message Capacity, 5 3/6\x94 x 1…
##  9 "Imation\xa0Secure+ Hardware Encrypted USB 2.0\xa0Flash Drive; 16GB"         
## 10 "Logitech\xa0P710e Mobile Speakerphone"                                      
## # ℹ 49 more rows

type_convert(Orders %>%
  select(`Product Name`) %>%
  filter(!validUTF8(`Product Name`)) %>%
  distinct(), locale = readr::locale(encoding = "latin1")) %>%
  mutate(`Product Name` = iconv(`Product Name`,"utf-8", "latin1", sub=" "))

## # A tibble: 59 × 1
##    `Product Name`                                                            
##    <chr>                                                                     
##  1 Konftel 250 Conference phone - Charcoal black                             
##  2 Imation 8GB Mini TravelDrive USB 2.0 Flash Drive                          
##  3 Imation 8gb Micro Traveldrive Usb 2.0 Flash Drive                         
##  4 Logitech LS21 Speaker System - PC Multimedia - 2.1-CH - Wired             
##  5 Logitech Gaming G510s - Keyboard                                          
##  6 Plantronics Cordless Phone Headset with In-line Volume - M214C            
##  7 Jabra BIZ 2300 Duo QD Duo Corded Headset                                  
##  8 Adams Phone Message Book, Professional, 400 Message Capacity, 5 3/6” x 11”
##  9 Imation Secure+ Hardware Encrypted USB 2.0 Flash Drive; 16GB              
## 10 Logitech P710e Mobile Speakerphone                                        
## # ℹ 49 more rows
…
